…
Question: 2. What do you notice about these two values? 3. How does this
correspond to the appropriate density plot above? That is, what feature
of these curves are you comparing?

# Task 4: Predictions

``` r
# Predictions for LDA
predict(lda_years, new_data = resume, type = "prob")
```

    ## # A tibble: 4,870 × 2
    ##    .pred_No .pred_Yes
    ##       <dbl>     <dbl>
    ##  1    0.923    0.0769
    ##  2    0.923    0.0769
    ##  3    0.923    0.0769
    ##  4    0.923    0.0769
    ##  5    0.884    0.116 
    ##  6    0.923    0.0769
    ##  7    0.928    0.0724
    ##  8    0.885    0.115 
    ##  9    0.939    0.0612
    ## 10    0.923    0.0769
    ## # … with 4,860 more rows
…
